This is BibTeX, Version 0.99d (TeX Live 2018/Arch Linux)
Capacity: max_strings=100000, hash_size=100000, hash_prime=85009
The top-level auxiliary file: main.aux
A level-1 auxiliary file: section/dedication.aux
A level-1 auxiliary file: section/acknowlegements.aux
A level-1 auxiliary file: section/abstrak.aux
A level-1 auxiliary file: section/abstract.aux
A level-1 auxiliary file: section/chapter1.aux
A level-1 auxiliary file: section/chapter2.aux
A level-1 auxiliary file: section/chapter3.aux
A level-1 auxiliary file: section/chapter4.aux
A level-1 auxiliary file: section/chapter5.aux
A level-1 auxiliary file: section/chapter6.aux
A level-1 auxiliary file: section/chapter7.aux
The style file: IEEEtran.bst
Reallocated singl_function (elt_size=8) to 100 items from 50.
Reallocated singl_function (elt_size=8) to 100 items from 50.
Reallocated singl_function (elt_size=8) to 100 items from 50.
Reallocated wiz_functions (elt_size=8) to 6000 items from 3000.
Reallocated singl_function (elt_size=8) to 100 items from 50.
Database file #1: references.bib
-- IEEEtran.bst version 1.14 (2015/08/26) by Michael Shell.
-- http://www.michaelshell.org/tex/ieeetran/bibtex/
-- See the "IEEEtran_bst_HOWTO.pdf" manual for usage information.
Warning--empty journal in hermawanpeningkatan

Done.
You've used 22 entries,
            4087 wiz_defined-function locations,
            955 strings with 11659 characters,
and the built_in function-call counts, 14275 in all, are:
= -- 1176
> -- 292
< -- 105
+ -- 158
- -- 53
* -- 666
:= -- 2250
add.period$ -- 47
call.type$ -- 22
change.case$ -- 22
chr.to.int$ -- 210
cite$ -- 23
duplicate$ -- 1077
empty$ -- 1180
format.name$ -- 66
if$ -- 3298
int.to.chr$ -- 0
int.to.str$ -- 22
missing$ -- 194
newline$ -- 91
num.names$ -- 22
pop$ -- 431
preamble$ -- 1
purify$ -- 0
quote$ -- 2
skip$ -- 1121
stack$ -- 0
substring$ -- 530
swap$ -- 838
text.length$ -- 35
text.prefix$ -- 0
top$ -- 5
type$ -- 22
warning$ -- 1
while$ -- 60
width$ -- 24
write$ -- 231
(There was 1 warning)
