Ket;KODE_JIWA;STATUS;LOKASI;PKT_GOL;PENERIMA;JENIS_PENSIUN;TGL_WAFAT;KODE_TMT_STOP;MASA_TENGGANG;CLASS_RESIKO;CLASS_PELACAKAN
SP4A;1100;KAWIN;KAB. PURWAKARTA;4A;PENSIUN SENDIRI;PENSIUN SENDIRI PNS PUSAT;TIDAK ADA;AKTIF;3;BERESIKO;AMAN
SP4A;1100;KAWIN;KAB. BANDUNG;4A;PENSIUN SENDIRI;PENSIUN SENDIRI PNS PUSAT;TIDAK ADA;AKRIF;2;TIDAK;AMAN
SP4A;1000;KAWIN;KAS. SUBANG;1D;PENSIUN SENDIRI;PENSIUN SENDIRI PNS PUSAT;TIDAK ADA;AKTIF;3;BERESIKO;AMAN
SP4A;1100;KAWIN;KAB. BANDUNG;3B;PENSIUN SENDIRI;PENSIUN SENDIRI PNS PUSAT;TIDAK ADA;AKTIF;5;BERESIKO;BERBAHAYA
SP4A;1000;KAWIN;KOTA BANDUNG;3B;PENSIUN SENDIRI;PENSIUN SENDIRI PNS PUSAT;TIDAK ADA;AKTIF;3;BERESIKO;AMAN
SP4A;1101;KAWIN;KAB. BANDUNG;3C;PENSIUN SENDIRI;PENSIUN SENDIRI PNS PUSAT;TIDAK ADA;AKTIF;1;TIDAK;AMAN
SP4A;1100;KAWIN;KAB. BANDUNG;3C;PENSIUN SENDIRI;PENSIUN SENDIRI PNS PUSAT;TIDAK ADA;AKTIF;2;TIDAK;AMAN
SP4A;1001;KAWIN;KAB. BANDUNG;4A;PENSIUN SENDIRI;PENSIUN SENDIRI PNS PUSAT;TIDAK ADA;AKTIF;4;BERESIKO;SEDANG
SP4A;1100;KAWIN;KAB. BANDUNG BARAT;4A;PENSIUN SENDIRI;PENSIUN SENDIRI PNS PUSAT;TIDAK ADA;AKTIF;1;TIDAK;AMAN
SP4A;1100;KAWIN;KAB. BANDUNG BARAT;4B;PENSIUN SENDIRI;PENSIUN SENDIRI PNS PUSAT;TIDAK ADA;AKTIF;2;TIDAK;AMAN
SP4A;1001;KAWIN;KOTA BANDUNG;3B;PENSIUN SENDIRI;PENSIUN SENDIRI PNS PUSAT;TIDAK ADA;AKTIF;3;BERESIKO;AMAN
SP4A;1000;KAWIN;KOTA BANDUNG;4A;PENSIUN SENDIRI;PENSIUN SENDIRI PNS PUSAT;TIDAK ADA;AKTIF;2;TIDAK;AMAN
SP4A;1100;KAWIN;KAB. BANDUNG;4A;PENSIUN SENDIRI;PENSIUN SENDIRI PNS PUSAT;TIDAK ADA;AKTIF;2;TIDAK;AMAN
SP4A;1100;KAWIN;KAB. CIANJUR;4B;PENSIUN SENDIRI;PENSIUN SENDIRI PNS PUSAT;TIDAK ADA;AKTIF;3;BERESIKO;AMAN
SP4A;1101;KAWIN;KAB. BANDUNG;4A;PENSIUN SENDIRI;PENSIUN SENDIRI PNS PUSAT;TIDAK ADA;AKTIF;1;TIDAK;AMAN
SP4A;1102;KAWIN;KAB. BANDUNG;2C;PENSIUN SENDIRI;PENSIUN SENDIRI PNS PUSAT;TIDAK ADA;AKTIF;2;TIDAK;AMAN
SP4A;1100;KAWIN;KOTA BANDUNG;4A;PENSIUN SENDIRI;PENSIUN SENDIRI PNS PUSAT;TIDAK ADA;AKTIF;1;TIDAK;AMAN
SP4A;1102;KAWIN;KAB. BANDUNG;3C;PENSIUN SENDIRI;PENSIUN SENDIRI PNS PUSAT;TIDAK ADA;AKTIF;2;TIDAK;AMAN
SP4A;1101;KAWIN;KAB. BANDUNG;4A;PENSIUN SENDIRI;PENSIUN SENDIRI PNS PUSAT;TIDAK ADA;AKTIF;2;TIDAK;AMAN
SP4A;1100;KAWIN;KAB. BANDUNG BARAT;4B;PENSIUN SENDIRI;PENSIUN SENDIRI PNS PUSAT;TIDAK ADA;AKTIF;1;TIDAK;AMAN
SP4A;1101;KAWIN;KAB SUMEDANG;4A;PENSIUN SENDIRI;PENSIUN SENDIRI PNS DAERAH OTONOM;TIDAK ADA;AKTIF;4;BERESIKO;SEDANG
SP4A;1101;KAWIN;BANDUNG;4B;PENSIUN SENDIRI;PENSIUN SENDIRI PNS PUSAT;TIDAK ADA;AKTIF;3;BERESIKO;AMAN
SP4A;1100;KAWIN;KAB SUBANG;4A;PENSIUN SENDIRI;PENSIUN SENDIRI PNS PUSAT;TIDAK ADA;AKTIF;5;BERESIKO;BERBAHAYA
SP4A;1100;KAWIN;KAB SUMEDANG;4B;PENSIUN SENDIRI;PENSIUN SENDIRI PNS PUSAT;TIDAK ADA;AKTIF;3;BERESIKO;AMAN
SP4A;1100;KAWIN;KAB SUBANG;4A;PENSIUN SENDIRI;PENSIUN SENDIRI PNS PUSAT;TIDAK ADA;AKTIF;2;TIDAK;AMAN
SP4A;1100;KAWIN;BANDUNG;3C;PENSIUN SENDIRI;PENSIUN SENDIRI PNS PUSAT;TIDAK ADA;AKTIF;1;TIDAK;AMAN
SP4A;1100;KAWIN;KAB SUMEDANG;4A;PENSIUN SENDIRI;PENSIUN SENDIRI PNS PUSAT;TIDAK ADA;AKTIF;4;BERESIKO;SEDANG
SP4A;1101;KAWIN;BANDUNG;4A;PENSIUN SENDIRI;PENSIUN SENDIRI PNS DAERAH OTONOM;TIDAK ADA;AKTIF;2;TIDAK;AMAN
SP4A;1000;KAWIN;BANDUNG;4A;PENSIUN SENDIRI;PENSIUN SENDIRI PNS DAERAH OTONOM;TIDAK ADA;AKTIF;1;TIDAK;AMAN
SP4A;1100;LAJANG;BANDUNG;2D;PENSIUN SENDIRI;PENSIUN SENDIRI PNS PUSAT;TIDAK ADA;AKTIF;2;TIDAK;AMAN
SP4A;1100;KAWIN;BANDUNG;2A;PENSIUN SENDIRI;PENSIUN SENDIRI PNS DAERAH OTONOM;TIDAK ADA;AKTIF;2;TIDAK;AMAN
SP4A;1000;CERAI;KAB SUBANG;4A;PENSIUN SENDIRI;PENSIUN SENDIRI PNS DAERAH OTONOM;TIDAK ADA;AKTIF;3;BERESIKO;AMAN
SP4A;1101;KAWIN;BANDUNG;4A;PENSIUN SENDIRI;PENSIUN SENDIRI PNS DAERAH OTONOM;TIDAK ADA;AKTIF;3;BERESIKO;AMAN
SP4A;1101;KAWIN;BANDUNG;3B;PENSIUN SENDIRI;PENSIUN SENDIRI PNS DAERAH OTONOM;TIDAK ADA;AKTIF;1;TIDAK;AMAN
SP4A;1100;KAWIN;CIMAHI;3B;PENSIUN SENDIRI;PENSIUN SENDIRI PNS DAERAH OTONOM;TIDAK ADA;AKTIF;2;TIDAK;AMAN
SP4A;1100;KAWIN;BANDUNG;4A;PENSIUN SENDIRI;PENSIUN SENDIRI PNS DAERAH OTONOM;TIDAK ADA;AKTIF;2;TIDAK;AMAN
UDW;1101;KAWIN;KAB. BANDUNG;3C;ISTRI;PENSIUN SENDIRI PNS PUSAT;ADA;STOP SEMENTARA PENSIUN MENINGGAL;4;BERESIKO;SEDANG
SP4B;1001;LAJANG;KAB. BANDUNG;3C;PENSIUN SENDIRI;TUNJUNGAN JANDA;TIDAK ADA;AKTIF;4;BERESIKO;SEDANG
SPYP;1001;MAHASISWA;KAB. BANDUNG;3C;PENSIUN YATIM;YATIM PIATU VETERAN;TIDAK ADA;AKTIF;2;TIDAK;AMAN
UDW;1000;LAJANG;KAB. BANDUNG;3C;PENSIUN SENDIRI;PENSIUN SENDIRI;ADA;STOP PERMANEN PUNAH;3;BERESIKO;AMAN
SP4A;1100;KAWIN;KAB BANDUNG;3B;PENSIUN SENDIRI;PENSIUN SENDIRI PNS PUSAT;TIDAK ADA;AKTIF;3;BERESIKO;AMAN
SP4A;1100;KAWIN;BEKASI;4B;PENSIUN SENDIRI;PENSIUN SENDIRI PNS PUSAT;TIDAK ADA;AKTIF;3;BERESIKO;AMAN
SP4A;1102;KAWIN;BANDUNG;4B;PENSIUN SENDIRI;PENSIUN SENDIRI PNS PUSAT;TIDAK ADA;AKTIF;3;BERESIKO;AMAN
UDW;1101;KAWIN;KAB. BANDUNG;4A;ISTRI;PENSIUN SENDIRI PNS PUSAT;ADA;STOP SEMENTARA PENSIUN MENINGGAL;5;BERESIKO;BERBAHAYA
SP4B;1001;LAJANG;KAB. BANDUNG;4A;PENSIUN SENDIRI;TUNJUNGAN JANDA;TIDAK ADA;AKTIF;2;TIDAK;AMAN
SPYP;1001;MAHASISWA;KAB. BANDUNG;4A;PENSIUN YATIM;YATIM PIATU VETERAN;TIDAK ADA;AKTIF;2;BERESIKO;AMAN
UDW;1000;LAJANG;KAB. BANDUNG;4A;SUAMI;PENSIUN JANDA SENDIRI;ADA;STOP PERMANEN PUNAH;3;BERESIKO;AMAN
SP4A;1101;KAWIN;KAB BANDUNG;4A;PENSIUN SENDIRI;PENSIUN SENDIRI PNS DAERAH OTONOM;TIDAK ADA;AKTIF;3;BERESIKO;AMAN
SP4A;1001;KAWIN;CIMAHI;4A;PENSIUN SENDIRI;PENSIUN SENDIRI PNS DAERAH OTONOM;TIDAK ADA;AKTIF;2;TIDAK;AMAN
